<svg width="580" height="354" viewBox="0 0 580 354" fill="none" xmlns="http://www.w3.org/2000/svg">
<g clip-path="url(#clip0)">
<path d="M233.055 155.431C271.028 154.498 301.31 133.349 300.692 108.195C300.073 83.04 268.788 63.4052 230.815 64.3389C192.842 65.2726 162.56 86.4213 163.179 111.576C163.797 136.73 195.082 156.365 233.055 155.431Z" fill="#E6EFF4"/>
<path d="M390.625 50.5611C411.696 50.043 428.5 38.3061 428.157 24.346C427.814 10.3859 410.453 -0.510995 389.381 0.007142C368.31 0.525279 351.506 12.2622 351.849 26.2223C352.192 40.1824 369.553 51.0793 390.625 50.5611Z" fill="#E6EFF4"/>
<path d="M131.75 256.583C172.381 257.139 298.326 258.014 374.896 252.607C516.903 242.509 631.956 268.987 555.148 293.397C533.68 300.234 593.631 346.431 443.434 352.314C311.605 357.483 177.946 334.822 113.304 324.883C48.5815 315.024 19.0033 299.757 5.32741 292.919C-6.7583 286.877 -10.3363 254.675 131.75 256.583Z" fill="#E6EFF4"/>
<path d="M299.201 232.65L295.225 238.693L328.461 249.347C328.461 249.347 330.687 247.2 322.497 242.986C313.036 237.977 299.201 232.65 299.201 232.65Z" fill="#9FAEC1"/>
<path d="M293.237 232.65L297.213 238.693L263.977 249.347C263.977 249.347 261.751 247.2 269.941 242.986C279.402 237.977 293.237 232.65 293.237 232.65Z" fill="#9FAEC1"/>
<path d="M299.678 214.68H292.76V239.408H299.678V214.68Z" fill="#9FAEC1"/>
<path d="M299.598 233.922L296.179 239.647L324.644 249.824C324.644 249.824 326.552 247.837 319.555 243.702C311.445 239.011 299.598 233.922 299.598 233.922Z" fill="#B6C4D8"/>
<path d="M292.84 233.922L296.259 239.647L267.794 249.824C267.794 249.824 265.886 247.837 272.883 243.702C280.993 239.011 292.84 233.922 292.84 233.922Z" fill="#B6C4D8"/>
<path d="M321.464 252.13C321.464 253.482 322.577 254.515 323.849 254.515C325.201 254.515 326.235 253.402 326.235 252.13C326.235 250.778 325.121 249.745 323.849 249.745C322.498 249.665 321.464 250.778 321.464 252.13Z" fill="#424D51"/>
<path d="M266.283 252.13C266.283 253.482 267.396 254.516 268.669 254.516C269.941 254.516 271.054 253.402 271.054 252.13C271.054 250.779 269.941 249.745 268.669 249.745C267.396 249.745 266.283 250.779 266.283 252.13Z" fill="#424D51"/>
<path d="M327.269 252.13C327.269 253.482 328.382 254.515 329.654 254.515C331.006 254.515 332.039 253.402 332.039 252.13C332.039 250.778 330.926 249.745 329.654 249.745C328.382 249.665 327.269 250.778 327.269 252.13Z" fill="#424D51"/>
<path d="M260.479 252.13C260.479 253.482 261.592 254.515 262.864 254.515C264.216 254.515 265.25 253.402 265.25 252.13C265.25 250.778 264.136 249.745 262.864 249.745C261.592 249.665 260.479 250.778 260.479 252.13Z" fill="#424D51"/>
<path d="M298.883 205.616H293.794V214.521H298.883V205.616Z" fill="#B6C4D8"/>
<path d="M289.978 200.925C289.978 203.628 292.204 205.855 294.907 205.855H297.69C300.394 205.855 302.62 203.628 302.62 200.925C302.62 198.222 300.394 195.995 297.69 195.995H294.907C292.204 195.995 289.978 198.222 289.978 200.925Z" fill="#B6C4D8"/>
<path d="M258.571 196.393C258.412 195.836 258.412 192.179 258.412 191.543C258.412 187.567 261.035 184.307 264.216 184.307H328.541C331.721 184.307 334.345 187.567 334.345 191.543C334.345 192.179 334.265 195.836 334.186 196.393H258.571Z" fill="#9FAEC1"/>
<path d="M334.822 198.381C334.822 199.573 334.106 200.607 333.232 200.607H259.366C258.491 200.607 257.775 199.653 257.775 198.381C257.775 197.188 258.491 196.154 259.366 196.154H333.232C334.106 196.154 334.822 197.108 334.822 198.381Z" fill="#B6C4D8"/>
<path d="M310.014 183.751C310.014 183.751 270.1 183.83 254.675 184.069C244.02 184.228 243.066 169.041 247.28 166.735C260.081 159.818 299.917 156.24 299.917 156.24L327.03 181.127C326.95 181.127 325.44 181.127 310.014 183.751Z" fill="#33627C"/>
<path d="M355.892 260.081C356.528 260.797 356.051 262.785 356.051 262.785C356.051 262.785 345.317 263.977 341.819 263.182C340.944 262.944 339.433 262.228 338.002 261.353C337.764 261.194 337.366 260.399 337.128 260.24C336.73 260.002 336.491 260.399 336.094 260.161C335.14 259.525 334.424 259.048 334.424 259.048C333.47 254.118 334.742 252.13 334.742 252.13C334.742 252.13 343.886 249.109 345.635 251.176C349.69 256.265 354.541 258.491 355.892 260.081Z" fill="#424D51"/>
<path d="M255.469 254.754L254.754 262.864L246.644 263.659C246.644 263.659 246.087 262.546 245.372 262.626C244.815 262.705 244.179 263.898 243.384 263.977C241.714 264.136 239.806 264.295 239.011 264.375C237.5 264.534 222.711 265.965 222.711 265.965C222.711 265.965 222.154 264.295 222.552 263.739C222.79 263.421 224.063 262.785 224.937 262.467C228.992 260.876 240.68 256.026 242.35 251.812C244.417 246.644 255.469 254.754 255.469 254.754Z" fill="#424D51"/>
<path d="M330.131 169.041C330.131 169.041 332.755 194.166 332.437 207.365C332.119 217.384 332.119 236.546 334.504 252.925C334.663 253.959 347.464 253.164 347.464 253.164C347.464 253.164 352.076 190.906 353.428 180.729C354.7 170.472 350.724 163.077 330.131 169.041Z" fill="#33627C"/>
<path d="M249.745 175.084C249.745 175.084 253.879 181.604 265.17 183.114C269.225 183.671 258.57 255.947 258.57 255.947L241.873 250.62L245.133 170.711L249.745 175.084Z" fill="#215468"/>
<path d="M295.782 183.194C295.782 183.194 317.568 186.295 332.198 187.806C337.525 188.362 342.137 173.414 342.773 172.778C346.669 168.723 350.486 169.2 350.406 169.041C347.226 165.622 330.926 162.441 313.831 158.466C296.736 154.49 294.112 156.955 294.112 156.955L295.782 183.194Z" fill="#215468"/>
<path d="M332.596 182.955L334.265 231.775L335.935 243.145L336.094 231.775L335.697 224.778L339.593 213.806L341.66 188.362L338.718 189.475L339.036 178.344L332.596 182.955Z" fill="#215468"/>
<path d="M250.302 169.041L246.247 170.154L244.736 228.833L253.244 249.824L249.188 235.512L250.858 206.014C250.858 206.014 256.822 220.326 256.822 219.531C256.822 218.815 251.812 188.521 251.812 188.521C251.812 188.521 257.378 193.133 256.822 192.974C256.265 192.815 253.482 171.824 250.302 169.041Z" fill="#33627C"/>
<path d="M313.831 158.466C330.926 162.441 347.226 165.622 350.406 169.041C350.565 169.2 346.669 168.643 342.773 172.778C342.614 172.937 341.66 177.708 340.944 179.457C343.727 174.448 303.574 160.295 294.907 156.637C296.497 156.081 301.268 155.524 313.831 158.466Z" fill="#33627C"/>
<path d="M317.647 100.423C317.647 100.423 333.232 102.967 334.981 106.307C345.635 126.184 353.03 144.87 355.018 150.674C356.528 155.047 360.504 171.506 350.565 172.698C348.816 172.937 341.898 171.267 341.898 171.267L336.969 169.598L339.036 165.701L339.115 162.601C339.115 162.601 332.914 147.573 325.201 133.34C317.647 119.108 317.647 100.423 317.647 100.423Z" fill="#D5E8EF"/>
<path d="M338.32 168.325C338.32 168.325 328.858 172.698 325.519 177.549C322.1 182.399 320.907 180.491 320.907 180.491L306.118 167.848C306.118 167.848 320.192 162.759 338.32 168.325Z" fill="#E9F6FF"/>
<path d="M267.873 158.704L253.323 163.555C253.323 163.555 259.127 163.316 264.216 167.451C267.794 170.313 274.87 179.298 274.87 179.298C274.87 179.298 290.375 171.347 293.237 168.882C296.179 166.417 274.95 158.704 267.873 158.704Z" fill="#E9F6FF"/>
<path d="M277.017 102.331C277.017 102.331 264.773 102.569 262.308 112.826C257.378 133.181 258.014 136.918 256.981 156.319C256.901 158.227 257.06 163.316 268.589 163.555C273.201 163.634 273.042 154.967 273.042 154.967C273.042 154.967 276.063 146.539 279.164 132.148C282.345 117.836 277.017 102.331 277.017 102.331Z" fill="#D5E8EF"/>
<path d="M267.874 104.478L290.614 94.9364L310.571 93.5847L332.278 103.762C332.278 103.762 335.776 104.319 334.425 121.414C333.073 139.304 328.779 161.567 328.779 161.567L272.485 163.396C272.485 163.396 273.996 130.876 271.293 116.325C270.338 111.236 270.338 107.42 267.874 104.478Z" fill="white"/>
<path d="M267.794 151.946L295.305 163.157C295.305 163.157 275.825 165.94 263.58 163.475C255.311 161.805 267.396 151.628 267.794 151.946Z" fill="#E9D6B8"/>
<path d="M341.739 157.591L313.274 159.102C313.274 159.102 340.706 171.665 341.58 169.518C346.749 157.194 341.739 157.591 341.739 157.591Z" fill="#E9D6B8"/>
<path d="M326.076 156.717C324.406 155.922 324.565 155.922 324.565 155.922C324.565 155.922 323.054 157.75 320.828 158.068C319.715 158.227 316.216 158.307 316.216 158.307L310.969 158.466L308.504 158.307C308.504 158.307 307.152 158.148 306.755 158.386C305.721 159.102 306.596 159.579 306.596 159.579L315.978 160.931L306.914 162.044C306.914 162.044 305.8 162.362 305.721 162.998C305.641 163.555 306.039 163.555 306.039 163.555L316.534 164.668L311.923 165.781C311.923 165.781 310.81 166.099 310.73 166.735C310.651 167.371 310.571 167.53 310.571 167.53L320.192 166.576C320.351 166.576 327.746 157.512 326.076 156.717Z" fill="#E9D6B8"/>
<path d="M315.66 162.521L309.378 163.634C309.378 163.634 307.947 163.714 307.311 164.191C306.595 164.747 306.993 165.384 306.993 165.384L316.693 164.588L315.66 162.521Z" fill="#E9D6B8"/>
<path d="M344.84 171.506C344.84 171.506 354.064 176.594 353.587 158.227C353.507 155.206 341.58 156.081 341.58 156.081L327.507 156.796L323.134 167.451L344.84 171.506Z" fill="#D5E8EF"/>
<path d="M340.467 163.714L325.28 161.726L327.348 156.637L341.421 155.922C341.421 155.922 342.852 155.444 348.657 157.591C357.403 163.237 340.467 163.714 340.467 163.714Z" fill="#E9F6FF"/>
<path d="M259.922 163.157C259.922 163.157 257.219 159.42 257.378 158.227C258.491 151.39 266.442 150.038 266.442 150.038L287.513 155.683L282.662 166.338L259.922 163.157Z" fill="#D5E8EF"/>
<path d="M313.115 98.4349C313.115 98.4349 290.137 91.4379 289.66 98.6735C289.182 105.909 293.317 136.918 295.464 141.769C297.611 146.619 305.164 137.873 308.742 122.209C312.4 106.386 313.115 98.4349 313.115 98.4349Z" fill="#84C7CE"/>
<path d="M310.173 101.138L305.164 121.891L304.687 139.304L314.626 111.713L312.002 109.089L316.137 108.851C316.137 108.851 315.898 98.912 313.195 95.8111C310.571 92.6306 305.8 92.9487 308.106 95.0955C310.491 97.2423 310.173 101.138 310.173 101.138Z" fill="#D5E8EF"/>
<path d="M291.329 95.0159C291.329 95.0159 287.671 94.7774 286.479 97.9578C285.286 101.138 284.332 108.374 284.332 108.374L287.99 110.044L285.048 112.667L295.941 142.643C295.941 142.643 295.225 118.472 294.271 113.622C293.317 108.851 291.329 95.0159 291.329 95.0159Z" fill="#D5E8EF"/>
<path d="M291.727 101.138C292.124 104.16 294.589 106.863 297.213 106.943C299.678 106.943 302.143 106.943 304.687 106.943C307.311 106.784 309.776 104.16 310.173 101.138C310.809 96.1291 311.366 91.1199 312.002 86.1107C312.4 83.0893 310.65 77.0464 306.675 75.2972C303.017 73.7069 298.883 73.7069 295.305 75.2972C291.329 77.0464 289.58 83.1688 289.978 86.1107C290.534 91.1199 291.091 96.1291 291.727 101.138Z" fill="#E2C59C"/>
<path d="M302.063 65.6763C304.131 65.6763 305.959 66.7099 307.073 68.3797H309.14C311.684 68.3797 313.751 70.4469 313.751 72.9913V84.3614H310.491V79.7498C310.491 77.921 309.06 76.4898 307.232 76.4898H305.323H308.345H306.357C303.097 76.4898 300.394 73.7864 300.394 70.5265V65.6763H302.063Z" fill="#424D51"/>
<path d="M307.788 88.655C307.788 90.2452 309.06 91.5174 310.65 91.5174H310.889C312.479 91.5174 313.751 90.2452 313.751 88.655V85.236C313.751 83.6458 312.479 82.4531 310.889 82.4531H310.65C309.537 82.4531 308.504 83.1687 308.027 84.1229L307.788 88.655Z" fill="#E2C59C"/>
<path d="M304.608 70.2084V65.6763H302.699H297.77H294.828C291.568 65.6763 288.864 68.3797 288.864 71.6396V76.1718H290.773H295.702H298.644C301.904 76.1718 304.608 73.4684 304.608 70.2084Z" fill="#424D51"/>
<path d="M289.66 92.9487C289.66 95.334 291.488 99.3095 294.51 100.582C298.565 102.251 303.415 102.251 307.47 100.582C310.492 99.3095 312.241 95.334 312.32 92.9487C312.32 86.1902 312.32 79.5113 312.32 72.7528C312.32 70.3675 309.935 68.3797 306.993 68.3002C303.018 68.3002 298.963 68.3002 294.987 68.3002C292.045 68.3797 289.66 70.3675 289.66 72.7528C289.66 79.5113 289.66 86.2697 289.66 92.9487Z" fill="#E9D6B8"/>
<path d="M298.724 65.6763C296.656 65.6763 294.828 66.7099 293.715 68.3797H291.647C289.103 68.3797 287.036 70.4469 287.036 72.9913V84.3614H290.296V79.7498C290.296 77.921 291.727 76.4898 293.556 76.4898H292.442H297.69C300.95 76.4898 303.653 73.7864 303.653 70.5265V65.6763H298.724Z" fill="#424D51"/>
<path d="M292.919 85.236C292.919 83.6458 291.647 82.4531 290.057 82.4531H289.818C288.228 82.4531 286.956 83.7253 286.956 85.236V88.655C286.956 90.2452 288.228 91.5174 289.818 91.5174H290.057C291.25 91.5174 292.204 90.8018 292.681 89.8477L292.919 85.236Z" fill="#E9D6B8"/>
<path d="M303.654 71.4011C303.574 71.0035 303.574 70.606 303.574 70.2084V65.6763H305.483H307.788C311.048 65.6763 313.752 68.3797 313.752 71.6396V76.1718H312.48H311.843H309.458C309.061 76.1718 308.663 76.0923 308.265 76.0127C307.788 73.7069 305.96 71.8782 303.654 71.4011Z" fill="#424D51"/>
<path d="M276.063 167.53C276.063 167.451 276.063 167.451 276.063 167.53V165.702H332.198V167.53C332.198 167.53 332.198 167.53 332.198 167.61L332.039 167.928C331.085 169.518 329.336 169.757 327.428 169.757H280.993C279.005 169.757 277.336 169.518 276.382 167.928L276.063 167.53Z" fill="#B6C2C9"/>
<path d="M322.657 166.099H285.525V167.371H322.657V166.099Z" fill="#879BA6"/>
<path d="M276.063 165.861L275.904 129.047C275.904 128.093 276.699 127.298 277.654 127.298H330.21C331.165 127.298 331.96 128.093 331.96 129.047L332.119 165.861H276.063Z" fill="#D7DFE2"/>
<path d="M300.632 146.539C300.632 148.448 302.143 149.958 304.051 149.958C305.96 149.958 307.47 148.448 307.47 146.539C307.47 144.631 305.96 143.12 304.051 143.12C302.143 143.2 300.632 144.711 300.632 146.539Z" fill="#B6C2C9"/>
<path d="M500.205 227.959C508.951 227.8 512.688 219.69 511.814 209.194C509.508 191.861 498.138 180.093 501.636 159.102L497.581 158.466C495.275 173.573 499.808 185.261 503.465 194.644C507.918 203.787 512.132 224.142 499.251 223.904L498.456 227.879C498.535 227.879 499.172 227.959 500.205 227.959Z" fill="#B6C4D8"/>
<path d="M469.037 260.24L465.062 266.283L498.297 276.938C498.297 276.938 500.524 274.791 492.334 270.577C482.872 265.568 469.037 260.24 469.037 260.24Z" fill="#9FAEC1"/>
<path d="M463.153 260.24L467.128 266.283L433.893 276.938C433.893 276.938 431.667 274.791 439.856 270.577C449.318 265.568 463.153 260.24 463.153 260.24Z" fill="#9FAEC1"/>
<path d="M469.514 242.271H462.597V266.999H469.514V242.271Z" fill="#9FAEC1"/>
<path d="M469.514 261.512L466.095 267.237L494.56 277.415C494.56 277.415 496.468 275.427 489.471 271.292C481.361 266.601 469.514 261.512 469.514 261.512Z" fill="#B6C4D8"/>
<path d="M462.676 261.512L466.095 267.237L437.63 277.415C437.63 277.415 435.722 275.427 442.718 271.292C450.829 266.601 462.676 261.512 462.676 261.512Z" fill="#B6C4D8"/>
<path d="M491.379 279.721C491.3 282.822 496.23 282.822 496.23 279.721C496.23 276.54 491.3 276.54 491.379 279.721Z" fill="#424D51"/>
<path d="M436.199 279.721C436.119 282.822 441.049 282.822 441.049 279.721C441.128 276.54 436.199 276.54 436.199 279.721Z" fill="#424D51"/>
<path d="M497.184 279.721C497.105 282.822 502.034 282.822 502.034 279.721C502.034 276.54 497.184 276.54 497.184 279.721Z" fill="#424D51"/>
<path d="M430.395 279.721C430.315 282.822 435.245 282.822 435.245 279.721C435.245 276.54 430.315 276.54 430.395 279.721Z" fill="#424D51"/>
<path d="M468.719 233.206H463.63V242.112H468.719V233.206Z" fill="#B6C4D8"/>
<path d="M459.813 228.515C459.734 235.353 472.615 235.353 472.535 228.515C472.615 221.677 459.734 221.677 459.813 228.515Z" fill="#B6C4D8"/>
<path d="M428.407 223.983C427.612 219.451 428.566 211.738 433.972 211.897H498.297C503.704 211.818 504.737 219.451 503.863 223.983H428.407Z" fill="#9FAEC1"/>
<path d="M504.737 225.971C504.737 227.164 504.022 228.197 503.147 228.197H429.281C428.407 228.197 427.691 227.243 427.691 225.971C427.691 224.778 428.407 223.745 429.281 223.745H503.147C504.022 223.745 504.737 224.699 504.737 225.971Z" fill="#B6C4D8"/>
<path d="M501.16 186.851C492.89 187.487 467.526 187.647 466.652 182.478C464.505 171.188 464.346 159.579 466.334 148.288C467.129 143.12 493.049 143.359 501.398 143.995C497.979 158.068 497.9 172.698 501.16 186.851Z" fill="#9FAEC1"/>
<path d="M502.67 143.915C503.942 143.915 504.737 144.551 504.578 145.188C501.477 158.466 501.398 172.221 504.26 185.42C504.419 186.136 503.545 186.692 502.352 186.692C495.991 188.362 496.15 142.405 502.67 143.915Z" fill="#B6C4D8"/>
<path d="M503.147 186.772C489.074 190.907 493.924 156.319 495.037 148.527C495.832 144.392 500.046 143.12 503.465 143.995C500.046 158.068 499.887 172.698 503.147 186.772Z" fill="#8A9BAD"/>
<path d="M436.198 154.57C436.198 154.57 436.119 157.353 422.443 157.432C408.767 157.432 388.81 154.093 388.81 154.093L420.296 151.151C420.296 151.071 432.382 150.515 436.198 154.57Z" fill="#E2C59C"/>
<path d="M399.544 155.047C393.024 155.285 390.4 158.625 387.856 159.659C385.311 160.772 382.767 162.362 382.767 162.362C384.119 159.579 386.186 159.42 387.22 158.466C388.253 157.512 388.015 157.989 385.629 157.909C384.278 157.83 382.051 160.215 380.461 161.567C379.03 162.76 378.155 162.839 378.155 162.839C378.155 162.839 379.746 160.454 381.813 158.466C384.357 156.081 387.458 154.093 388.174 153.775C389.525 153.218 393.899 152.9 397 153.218C400.578 153.616 404.235 154.888 399.544 155.047Z" fill="#E2C59C"/>
<path d="M388.651 153.934C388.651 153.934 383.721 155.365 382.847 156.001C382.29 156.478 379.825 159.181 379.825 159.181C379.825 159.181 381.654 158.784 382.688 157.75C383.721 156.796 388.651 153.934 388.651 153.934Z" fill="#E2C59C"/>
<path d="M429.997 148.845C429.997 148.845 442.56 149.163 442.003 156.637C441.685 160.851 438.823 162.442 435.006 162.283C427.93 161.964 419.899 161.169 419.899 161.169L415.923 149.72L429.997 148.845Z" fill="#E4EFEF"/>
<path d="M432.7 149.799L443.672 111.077C443.672 111.077 445.263 105.432 448.284 106.386C452.657 107.738 450.669 112.429 450.351 115.132C449.795 120.698 450.351 123.083 446.853 136.6C444.706 144.949 442.877 154.49 440.969 159.977C439.617 163.793 436.914 158.466 433.097 157.114C425.941 154.649 432.7 149.799 432.7 149.799Z" fill="#E4EFEF"/>
<path d="M453.93 98.5939C455.838 107.022 464.345 112.27 472.933 110.362C481.52 108.453 487.006 100.025 485.098 91.5969C483.19 83.1687 474.682 77.921 466.095 79.8293C457.508 81.7375 452.101 90.1657 453.93 98.5939Z" fill="#424D51"/>
<path d="M439.22 89.9272C440.651 96.3676 447.092 100.502 453.612 98.9915L455.281 92.7896C461.722 91.3584 465.856 84.918 464.346 78.3981L463.392 74.0249C461.96 67.5845 455.52 63.4499 449 64.9606L446.058 65.5967C439.618 67.0279 435.483 73.4684 436.994 79.9883L439.22 89.9272Z" fill="#424D51"/>
<path d="M440.095 71.6396C440.333 72.6733 440.651 73.7865 441.129 74.8996C443.991 82.1351 449.875 86.8263 455.043 86.4287C455.997 89.7682 457.349 92.7101 458.701 95.175C460.291 97.9579 464.505 100.264 464.505 100.264C466.493 105.352 446.217 122.288 445.343 121.891C443.514 120.937 446.774 108.771 450.113 104.955C451.704 103.206 453.294 101.059 453.294 99.8661C453.373 95.6521 452.101 94.7774 450.034 92.8692C446.535 90.2453 442.48 91.1994 442.48 91.1994C442.083 91.2789 441.685 91.1994 441.367 90.9609C440.97 90.2453 440.652 89.4502 440.413 88.5756L438.266 78.8752C437.71 76.2513 438.425 73.5479 440.095 71.6396Z" fill="#E9D6B8"/>
<path d="M461.086 179.457C461.086 179.457 455.918 184.148 454.407 184.546C452.419 185.102 447.012 182.717 447.012 182.717C447.012 182.717 448.523 158.307 447.967 148.606C447.41 138.906 445.104 136.123 445.422 133.181C445.82 128.411 442.003 125.946 443.116 122.288C444.23 118.631 447.171 105.591 447.33 107.34C449 122.845 454.964 110.918 456.156 109.01C456.792 108.135 461.086 179.457 461.086 179.457Z" fill="#84C7CE"/>
<path d="M450.272 103.365C450.272 103.365 443.355 108.374 443.514 110.759C443.593 113.065 439.936 119.982 441.447 130.319C443.116 142.166 443.752 150.038 443.434 157.591C443.116 165.145 439.618 171.665 439.459 180.968C439.379 188.203 441.049 188.919 441.049 188.919C441.049 188.919 444.229 190.111 446.933 187.647C449.636 185.182 449.159 160.295 448.762 154.013C448.364 147.732 446.376 133.022 445.979 128.729C445.422 123.401 446.297 118.154 446.535 116.643C447.489 111.316 448.603 108.135 449.398 106.148C449.557 105.829 451.306 104.398 451.465 104.08C451.862 102.808 450.829 102.729 450.272 103.365Z" fill="white"/>
<path d="M458.541 119.824C460.529 128.649 469.434 134.136 478.419 132.148C487.404 130.16 493.129 121.334 491.141 112.588C489.153 103.762 480.248 98.276 471.263 100.264C462.278 102.252 456.554 110.998 458.541 119.824Z" fill="#424D51"/>
<path d="M424.192 262.944L427.293 286.877L413.776 293.079L406.302 294.669L419.581 284.73L415.287 263.182L424.192 262.944Z" fill="#E9D6B8"/>
<path d="M428.168 290.534L425.226 291.329L423.239 289.58L412.425 294.828L402.884 297.054C402.884 297.054 402.804 296.338 403.122 295.861C404.315 294.351 410.994 290.932 410.994 290.932C410.994 290.932 411.073 293.158 412.028 293.238C412.982 293.317 421.251 289.103 423.159 287.91C426.419 285.923 427.055 284.65 427.294 284.809C428.009 285.207 428.168 290.534 428.168 290.534Z" fill="#424D51"/>
<path d="M391.593 229.708L380.938 250.063L366.07 249.347L358.675 247.28L375.055 244.656L384.039 227.164L391.593 229.708Z" fill="#E9D6B8"/>
<path d="M379.984 253.721L377.043 253.084L376.088 250.62L362.81 250.461L354.859 248.632C354.859 248.632 355.813 247.598 356.449 247.36C358.198 246.644 364.48 246.246 364.48 246.246C364.48 246.246 363.844 247.996 364.639 248.473C365.434 248.95 374.578 249.268 376.804 249.109C380.621 248.87 381.734 247.996 381.893 248.314C382.37 248.87 379.984 253.721 379.984 253.721Z" fill="#424D51"/>
<path d="M469.912 168.643L461.881 172.142L458.383 182.558L407.018 174.13C407.018 174.13 401.771 172.539 398.431 180.809C393.66 192.576 381.575 229.231 381.575 229.231L389.208 237.262L413.22 195.916C413.22 195.916 462.358 218.974 478.579 213.965C484.78 212.056 489.551 201.084 488.676 189.952C487.961 181.286 486.212 173.255 486.212 173.255L469.912 168.643Z" fill="#33627C"/>
<path d="M462.994 213.647L423.636 210.784L427.055 271.451L415.446 271.849L406.859 200.766C406.859 200.766 409.165 190.191 416.718 191.781C424.192 193.371 442.321 207.286 462.994 213.647Z" fill="#215468"/>
<path d="M479.771 226.528C479.771 226.528 462.04 201.8 458.303 188.601C453.85 172.857 456.713 154.093 456.315 147.652C455.6 135.964 455.759 113.304 455.6 110.521C455.441 107.738 457.588 104.796 457.588 104.796C457.588 104.796 459.814 97.6398 463.71 98.1964C467.208 98.6735 472.615 103.524 475.955 105.75C479.215 107.976 478.897 149.243 479.056 151.31C479.612 158.784 484.383 166.099 487.484 173.414C494.799 190.668 494.799 209.989 494.799 209.989C494.799 209.989 491.936 223.983 479.771 226.528Z" fill="white"/>
<path d="M467.924 160.851C467.924 160.851 467.526 163.873 451.306 162.123C435.165 160.374 411.789 154.093 411.789 154.093L449.477 155.047C449.477 154.967 463.868 155.922 467.924 160.851Z" fill="#E9D6B8"/>
<path d="M424.351 156.478C416.639 155.842 413.061 159.102 409.96 159.897C406.859 160.772 403.599 162.123 403.679 162.123C405.587 159.261 408.131 159.42 409.403 158.545C410.755 157.671 410.358 158.148 407.654 157.75C406.064 157.512 403.202 159.818 401.055 161.01C399.226 162.044 398.192 162.044 398.192 162.044C398.192 162.044 400.339 159.659 403.043 157.83C406.303 155.604 410.278 153.854 411.153 153.616C412.822 153.139 417.991 153.457 421.648 154.172C425.783 155.126 429.917 156.955 424.351 156.478Z" fill="#E9D6B8"/>
<path d="M411.63 153.854C411.63 153.854 405.587 154.729 404.553 155.365C403.758 155.763 400.578 158.466 400.578 158.466C400.578 158.466 402.804 158.307 404.156 157.353C405.507 156.319 411.63 153.854 411.63 153.854Z" fill="#E9D6B8"/>
<path d="M455.838 161.646L476.432 154.252C476.432 154.252 475 166.179 474.523 170.711C474.046 175.243 475.239 181.922 471.423 182.399C467.606 182.876 465.698 182.16 469.276 184.784C472.854 187.408 471.661 189.555 469.991 191.225C468.322 192.894 473.808 211.5 473.808 211.5C473.808 211.5 473.251 211.738 471.661 212.693C466.572 204.662 460.291 195.518 458.303 188.601C455.759 179.616 455.6 169.677 455.838 161.646Z" fill="#E4EFEF"/>
<path d="M461.245 153.854L463.074 115.609C463.074 115.609 465.141 107.579 468.162 105.75C471.74 103.603 476.59 107.579 476.59 107.579C476.59 107.579 479.135 113.542 477.386 141.689C476.272 160.533 474.523 170.313 465.618 168.882C457.269 167.61 447.887 165.701 447.887 165.701L444.547 152.821L461.245 153.854Z" fill="white"/>
<path d="M429.122 163.714C429.122 163.634 429.122 163.634 429.122 163.714V162.044H362.015V163.634C362.015 163.634 362.015 163.634 362.015 163.714L362.174 164.032C363.048 165.463 364.559 165.701 366.388 165.701H424.829C426.578 165.701 428.168 165.463 429.043 164.032L429.122 163.714Z" fill="#D0DEE6"/>
<path d="M412.902 163.952L413.061 164.27C413.299 164.668 413.697 164.906 414.015 165.065H424.192C425.862 165.065 427.373 164.827 428.247 163.714L428.406 163.475C428.406 163.475 428.406 163.475 428.406 163.396V162.6H412.822V163.952H412.902Z" fill="#B6C2C9"/>
<path d="M403.838 162.362H370.284V163.475H403.838V162.362Z" fill="#B6C2C9"/>
<path d="M412.584 161.964L403.917 128.967C403.679 128.093 402.804 127.377 401.929 127.377H354.859C353.984 127.377 353.507 128.093 353.666 128.967L362.333 161.964H412.584Z" fill="#D7DFE2"/>
<path d="M385.948 144.631C386.425 146.301 385.391 147.652 383.721 147.652C382.052 147.652 380.302 146.301 379.905 144.631C379.428 142.961 380.461 141.609 382.131 141.609C383.721 141.609 385.471 142.961 385.948 144.631Z" fill="#B6C2C9"/>
<path d="M206.888 298.088H198.857L212.136 169.756H223.824L206.888 298.088Z" fill="#B6C4D8"/>
<path d="M223.029 175.64L217.94 214.521L211.818 172.619L212.136 169.756H222.313L223.029 175.64Z" fill="#9FAEC1"/>
<path d="M363.048 298.088H355.018L368.296 169.756H379.905L363.048 298.088Z" fill="#B6C4D8"/>
<path d="M379.189 175.64L374.021 214.521L367.978 172.619L368.296 169.756H378.474L379.189 175.64Z" fill="#9FAEC1"/>
<path d="M447.41 298.088H455.44L442.162 169.756H430.553L447.41 298.088Z" fill="#B6C4D8"/>
<path d="M431.349 175.64L446.933 215.316L442.48 172.619L442.162 169.756H431.985L431.349 175.64Z" fill="#9FAEC1"/>
<path d="M453.453 165.622H356.608V173.096H453.453V165.622Z" fill="#B6C4D8"/>
<path d="M361.061 165.622H202.595V173.096H361.061V165.622Z" fill="#9FAEC1"/>
<path d="M461.165 95.811C461.165 95.811 455.917 102.729 454.963 109.169C454.009 115.609 456.633 150.435 456.633 150.435L458.541 119.823L457.11 115.132L459.495 114.655C459.495 114.655 461.642 102.729 463.312 100.82C464.982 98.912 465.22 98.1964 465.22 98.1964L461.165 95.811Z" fill="#E4EFEF"/>
<path d="M452.578 101.774C452.578 101.774 446.376 115.132 446.138 122.765C445.899 130.398 448.523 149.72 448.523 149.72C448.523 149.72 444.945 124.197 443.991 124.197C443.037 124.197 444.945 120.38 444.945 120.38L443.514 119.187C443.514 119.187 445.183 107.261 447.807 104.398C450.431 101.536 452.578 101.774 452.578 101.774Z" fill="#E4EFEF"/>
</g>
<defs>
<clipPath id="clip0">
<rect width="579.717" height="353.109" fill="white"/>
</clipPath>
</defs>
</svg>
