<svg width="80" height="80" viewBox="0 0 80 80" fill="none" xmlns="http://www.w3.org/2000/svg">
<circle cx="40" cy="40" r="40" fill="#00ADBA" fill-opacity="0.05"/>
<path d="M61.4375 45.6875H58.25V27.625C58.1836 25.3008 56.3242 23.4414 54 23.375H28.5C26.1094 23.4414 24.25 25.3008 24.25 27.625V45.6875H21.0625C20.4648 45.6875 20 46.2188 20 46.75V49.9375C20 52.9258 22.3242 55.25 25.3125 55.25H57.1875C60.1094 55.25 62.4336 52.9258 62.5 49.9375V46.75C62.5 46.2188 61.9688 45.6875 61.4375 45.6875ZM26.375 27.625C26.375 26.4961 27.3047 25.5 28.5 25.5H54C55.1289 25.5 56.125 26.4961 56.125 27.625V45.6875H45.9648C45.6992 45.6875 45.5 45.9531 45.4336 46.2188C45.2344 47.082 44.3047 47.8125 43.375 47.8125H39.125H39.0586C38.1289 47.8125 37.1992 47.082 37 46.2188C36.9336 45.9531 36.7344 45.6875 36.4688 45.6875H26.375V27.625ZM60.375 49.9375C60.3086 51.7305 58.9141 53.125 57.1875 53.125H25.3125C23.5195 53.125 22.125 51.7305 22.125 49.9375V47.8125H35.0078C35.4727 49.0078 36.8008 49.9375 38.0625 49.9375H44.4375C45.6328 49.9375 47.0273 49.0078 47.4258 47.8125H60.375V49.9375ZM39.125 41.9688C39.125 42.3008 39.3242 42.5 39.6562 42.5H42.8438C43.1094 42.5 43.375 42.3008 43.375 41.9688V38.25H47.0938C47.3594 38.25 47.625 38.0508 47.625 37.7188V34.5312C47.625 34.2656 47.3594 34 47.0938 34H43.375V30.2812C43.375 30.0156 43.1094 29.75 42.8438 29.75H39.6562C39.3242 29.75 39.125 30.0156 39.125 30.2812V34H35.4062C35.0742 34 34.875 34.2656 34.875 34.5312V37.7188C34.875 38.0508 35.0742 38.25 35.4062 38.25H39.125V41.9688Z" fill="#07ADBA"/>
</svg>
